user/src/core/wave.vcd
$date
	Thu May 30 15:02:02 2024
$end
$version
	Icarus Verilog
$end
$timescale
	1ns
$end
$scope module top $end
$scope module pc_reg_inst $end
$var wire 1 ! clk $end
$var wire 3 " hold_flag_i [2:0] $end
$var wire 32 # jump_addr_i [31:0] $end
$var wire 1 $ jump_flag_i $end
$var wire 1 % rst $end
$var wire 32 & start_i [31:0] $end
$var reg 32 ' pc_o [31:0] $end
$upscope $end
$upscope $end
$scope module top $end
$scope module rom_inst $end
$var wire 32 ( addr_i [31:0] $end
$var wire 1 ! clk $end
$var wire 1 % rst $end
$var reg 32 ) inst_o [31:0] $end
$upscope $end
$upscope $end
$scope module top $end
$scope module if_id_inst $end
$var wire 1 ! clk $end
$var wire 3 * hold_flag_i [2:0] $end
$var wire 32 + inst_addr_o [31:0] $end
$var wire 32 , inst_o [31:0] $end
$var wire 1 % rst $end
$var wire 32 - inst_i [31:0] $end
$var wire 32 . inst_addr_i [31:0] $end
$var wire 32 / inst_addr [31:0] $end
$var wire 32 0 inst [31:0] $end
$var wire 1 1 hold_en $end
$scope module inst_addr_ff $end
$var wire 1 ! clk $end
$var wire 32 2 def_val [31:0] $end
$var wire 1 1 hold_en $end
$var wire 1 % rst $end
$var wire 32 3 qout [31:0] $end
$var wire 32 4 din [31:0] $end
$var reg 32 5 qout_r [31:0] $end
$upscope $end
$scope module inst_ff $end
$var wire 1 ! clk $end
$var wire 32 6 def_val [31:0] $end
$var wire 1 1 hold_en $end
$var wire 1 % rst $end
$var wire 32 7 qout [31:0] $end
$var wire 32 8 din [31:0] $end
$var reg 32 9 qout_r [31:0] $end
$upscope $end
$upscope $end
$upscope $end
$scope module top $end
$scope module id_inst $end
$var wire 1 : jump_flag_i $end
$var wire 1 % rst $end
$var wire 5 ; rs2 [4:0] $end
$var wire 5 < rs1 [4:0] $end
$var wire 32 = reg2_rdata_i [31:0] $end
$var wire 32 > reg1_rdata_i [31:0] $end
$var wire 5 ? rd [4:0] $end
$var wire 7 @ opcode [6:0] $end
$var wire 32 A inst_i [31:0] $end
$var wire 32 B inst_addr_i [31:0] $end
$var wire 7 C funct7 [6:0] $end
$var wire 3 D funct3 [2:0] $end
$var reg 32 E inst_addr_o [31:0] $end
$var reg 32 F inst_o [31:0] $end
$var reg 32 G op1_jump_o [31:0] $end
$var reg 32 H op1_o [31:0] $end
$var reg 32 I op2_jump_o [31:0] $end
$var reg 32 J op2_o [31:0] $end
$var reg 5 K reg1_raddr_o [4:0] $end
$var reg 32 L reg1_rdata_o [31:0] $end
$var reg 5 M reg2_raddr_o [4:0] $end
$var reg 32 N reg2_rdata_o [31:0] $end
$var reg 5 O reg_waddr_o [4:0] $end
$var reg 1 P reg_we_o $end
$upscope $end
$upscope $end
$scope module top $end
$scope module regs_inst $end
$var wire 32 Q a0 [31:0] $end
$var wire 32 R a4 [31:0] $end
$var wire 32 S a5 [31:0] $end
$var wire 1 ! clk $end
$var wire 5 T raddr1_i [4:0] $end
$var wire 5 U raddr2_i [4:0] $end
$var wire 1 % rst $end
$var wire 32 V s0 [31:0] $end
$var wire 32 W sp [31:0] $end
$var wire 5 X waddr_i [4:0] $end
$var wire 32 Y wdata_i [31:0] $end
$var wire 1 Z we_i $end
$var reg 32 [ rdata1_o [31:0] $end
$var reg 32 \ rdata2_o [31:0] $end
$scope begin regs_init $end
$var integer 32 ] i [31:0] $end
$upscope $end
$upscope $end
$upscope $end
$scope module top $end
$scope module id_ex_inst $end
$var wire 1 ! clk $end
$var wire 3 ^ hold_flag_i [2:0] $end
$var wire 1 % rst $end
$var wire 1 _ reg_we_o $end
$var wire 1 P reg_we_i $end
$var wire 5 ` reg_waddr_o [4:0] $end
$var wire 5 a reg_waddr_i [4:0] $end
$var wire 32 b reg2_rdata_o [31:0] $end
$var wire 32 c reg2_rdata_i [31:0] $end
$var wire 32 d reg1_rdata_o [31:0] $end
$var wire 32 e reg1_rdata_i [31:0] $end
$var wire 32 f op2_o [31:0] $end
$var wire 32 g op2_i [31:0] $end
$var wire 32 h op1_o [31:0] $end
$var wire 32 i op1_i [31:0] $end
$var wire 32 j inst_o [31:0] $end
$var wire 32 k inst_i [31:0] $end
$var wire 32 l inst_addr_o [31:0] $end
$var wire 32 m inst_addr_i [31:0] $end
$var wire 1 n hold_en $end
$scope module inst_addr_ff $end
$var wire 1 ! clk $end
$var wire 32 o def_val [31:0] $end
$var wire 1 n hold_en $end
$var wire 32 p qout [31:0] $end
$var wire 1 % rst $end
$var wire 32 q din [31:0] $end
$var reg 32 r qout_r [31:0] $end
$upscope $end
$scope module inst_ff $end
$var wire 1 ! clk $end
$var wire 32 s def_val [31:0] $end
$var wire 1 n hold_en $end
$var wire 1 % rst $end
$var wire 32 t qout [31:0] $end
$var wire 32 u din [31:0] $end
$var reg 32 v qout_r [31:0] $end
$upscope $end
$scope module op1_dff $end
$var wire 1 ! clk $end
$var wire 32 w def_val [31:0] $end
$var wire 1 n hold_en $end
$var wire 1 % rst $end
$var wire 32 x qout [31:0] $end
$var wire 32 y din [31:0] $end
$var reg 32 z qout_r [31:0] $end
$upscope $end
$scope module op2_dff $end
$var wire 1 ! clk $end
$var wire 32 { def_val [31:0] $end
$var wire 1 n hold_en $end
$var wire 1 % rst $end
$var wire 32 | qout [31:0] $end
$var wire 32 } din [31:0] $end
$var reg 32 ~ qout_r [31:0] $end
$upscope $end
$scope module reg1_rdata_dff $end
$var wire 1 ! clk $end
$var wire 32 !" def_val [31:0] $end
$var wire 1 n hold_en $end
$var wire 32 "" qout [31:0] $end
$var wire 1 % rst $end
$var wire 32 #" din [31:0] $end
$var reg 32 $" qout_r [31:0] $end
$upscope $end
$scope module reg2_rdata_dff $end
$var wire 1 ! clk $end
$var wire 32 %" def_val [31:0] $end
$var wire 1 n hold_en $end
$var wire 32 &" qout [31:0] $end
$var wire 1 % rst $end
$var wire 32 '" din [31:0] $end
$var reg 32 (" qout_r [31:0] $end
$upscope $end
$scope module reg_waddr $end
$var wire 1 ! clk $end
$var wire 5 )" def_val [4:0] $end
$var wire 1 n hold_en $end
$var wire 5 *" qout [4:0] $end
$var wire 1 % rst $end
$var wire 5 +" din [4:0] $end
$var reg 5 ," qout_r [4:0] $end
$upscope $end
$scope module reg_we $end
$var wire 1 ! clk $end
$var wire 1 -" def_val $end
$var wire 1 n hold_en $end
$var wire 1 _ qout $end
$var wire 1 % rst $end
$var wire 1 P din $end
$var reg 1 ." qout_r $end
$upscope $end
$upscope $end
$upscope $end
$scope module top $end
$scope module ex_inst $end
$var wire 1 ! clk $end
$var wire 32 /" op1_jump_i [31:0] $end
$var wire 32 0" op2_jump_i [31:0] $end
$var wire 5 1" reg_waddr_o [4:0] $end
$var wire 32 2" reg_wdata_o [31:0] $end
$var wire 1 Z reg_we_o $end
$var wire 1 % rst $end
$var wire 1 _ reg_we_i $end
$var wire 5 3" reg_waddr_i [4:0] $end
$var wire 32 4" reg2_rdata_i [31:0] $end
$var wire 32 5" reg1_rdata_i [31:0] $end
$var wire 5 6" rd [4:0] $end
$var wire 7 7" opcode [6:0] $end
$var wire 32 8" op2_i [31:0] $end
$var wire 32 9" op1_i [31:0] $end
$var wire 32 :" op1_add_op2 [31:0] $end
$var wire 32 ;" mem_rdata_i [31:0] $end
$var wire 32 <" inst_i [31:0] $end
$var wire 32 =" inst_addr_i [31:0] $end
$var wire 7 >" funct7 [6:0] $end
$var wire 3 ?" funct3 [2:0] $end
$var reg 32 @" mem_raddr_o [31:0] $end
$var reg 32 A" mem_waddr_o [31:0] $end
$var reg 32 B" mem_wdata_o [31:0] $end
$var reg 1 C" mem_we_o $end
$var reg 5 D" reg_waddr [4:0] $end
$var reg 32 E" reg_wdata [31:0] $end
$var reg 1 F" reg_we $end
$upscope $end
$upscope $end
$scope module top $end
$scope module ram_inst $end
$var wire 1 ! clk $end
$var wire 32 G" raddr_i [31:0] $end
$var wire 1 % rst $end
$var wire 32 H" waddr_i [31:0] $end
$var wire 32 I" wdata_i [31:0] $end
$var wire 1 C" we_i $end
$var reg 32 J" rdata_o [31:0] $end
$scope begin ram_init $end
$var integer 32 K" i [31:0] $end
$upscope $end
$upscope $end
$upscope $end
$enddefinitions $end
#0
$dumpvars
b111111111111 K"
bx J"
bx I"
bx H"
bx G"
xF"
bx E"
bx D"
xC"
bx B"
bx A"
bx @"
bx ?"
bx >"
bx ="
bx <"
bx ;"
bx :"
bx 9"
bx 8"
bx 7"
bx 6"
bx 5"
bx 4"
bx 3"
bx 2"
bx 1"
bz 0"
bz /"
x."
0-"
bx ,"
bx +"
bx *"
b0 )"
bx ("
bx '"
bx &"
b0 %"
bx $"
bx #"
bx ""
b0 !"
bx ~
bx }
bx |
b0 {
bx z
bx y
bx x
b0 w
bx v
bx u
bx t
b10011 s
bx r
bx q
bx p
b0 o
0n
bx m
bx l
bx k
bx j
bx i
bx h
bx g
bx f
bx e
bx d
bx c
bx b
bx a
bx `
x_
b0 ^
b100000 ]
bx \
bx [
xZ
bx Y
bx X
b0 W
b0 V
bx U
bx T
b0 S
b0 R
b0 Q
xP
bx O
bx N
bx M
bx L
bx K
bx J
bx I
bx H
bx G
bx F
bx E
bx D
bx C
bx B
bx A
bx @
bx ?
bx >
bx =
bx <
bx ;
z:
bx 9
bx 8
bx 7
b10011 6
bx 5
bx 4
bx 3
b0 2
01
bx 0
bx /
bx .
bx -
bx ,
bx +
b0 *
bx )
bx (
bx '
b0 &
0%
0$
b0 #
b0 "
0!
$end
#10
b0 N
b0 c
b0 '"
b0 L
b0 e
b0 #"
b0 Y
b0 2"
b0 E"
b0 @"
b0 G"
b0 A"
b0 H"
b0 B"
b0 I"
0C"
b0 \
b0 =
b0 >
b0 [
b0 ;
b0 <
b0 ?
b0 C
b0 D
b10011 @
b0 M
b0 U
b0 K
b0 T
b0 O
b0 a
b0 +"
1P
b0 J
b0 g
b0 }
b0 H
b0 i
b0 y
b0 E
b0 m
b0 q
b10011 F
b10011 k
b10011 u
b0 6"
b0 ?"
b0 >"
b10011 7"
b0 X
b0 1"
b0 D"
0Z
0F"
b0 '
b0 (
b0 .
b0 4
b10011 ,
b10011 A
b10011 0
b10011 7
b10011 9
b0 +
b0 B
b0 /
b0 3
b0 5
b10011 j
b10011 t
b10011 v
b10011 <"
b0 l
b0 p
b0 ="
b0 r
b0 :"
b0 h
b0 x
b0 z
b0 9"
b0 f
b0 |
b0 ~
b0 8"
b0 d
b0 ""
b0 5"
b0 $"
b0 b
b0 &"
b0 4"
b0 ("
0_
0."
b0 `
b0 *"
b0 3"
b0 ,"
bx ;"
bx J"
b10011 )
b10011 -
b10011 8
1%
1!
#20
b10000000000010000000100110111 )
b10000000000010000000100110111 -
b10000000000010000000100110111 8
0%
0!
#30
b10000000000010000000000000000 H
b10000000000010000000000000000 i
b10000000000010000000000000000 y
b10 O
b10 a
b10 +"
b0 K
b0 T
1Z
1F"
b10 <
b10 ?
b1000 C
b110111 @
b0 J
b0 g
b0 }
b10000000000010000000100110111 F
b10000000000010000000100110111 k
b10000000000010000000100110111 u
b10000000100010011 )
b10000000100010011 -
b10000000100010011 8
b0 ;"
b0 J"
1_
1."
b10000000000010000000100110111 ,
b10000000000010000000100110111 A
b10000000000010000000100110111 0
b10000000000010000000100110111 7
b10000000000010000000100110111 9
b100 '
b100 (
b100 .
b100 4
1!
#40
0!
#50
b10000000000010000000000000000 N
b10000000000010000000000000000 c
b10000000000010000000000000000 '"
b10000000000010000000000000000 L
b10000000000010000000000000000 e
b10000000000010000000000000000 #"
b10000000000010000000000000000 =
b10000000000010000000000000000 >
b10000000000010000000000000000 [
b100000000000000001101111 )
b100000000000000001101111 -
b100000000000000001101111 8
b0 C
b10011 @
b10000000000010000000000000000 H
b10000000000010000000000000000 i
b10000000000010000000000000000 y
b10 K
b10 T
b100 E
b100 m
b100 q
b10000000100010011 F
b10000000100010011 k
b10000000100010011 u
b10 6"
b1000 >"
b110111 7"
b10000000000010000000000000000 Y
b10000000000010000000000000000 2"
b10000000000010000000000000000 E"
b10 X
b10 1"
b10 D"
b1000 '
b1000 (
b1000 .
b1000 4
b10000000100010011 ,
b10000000100010011 A
b10000000100010011 0
b10000000100010011 7
b10000000100010011 9
b100 +
b100 B
b100 /
b100 3
b100 5
b10000000000010000000100110111 j
b10000000000010000000100110111 t
b10000000000010000000100110111 v
b10000000000010000000100110111 <"
b10000000000010000000000000000 :"
b10000000000010000000000000000 h
b10000000000010000000000000000 x
b10000000000010000000000000000 z
b10000000000010000000000000000 9"
b10 `
b10 *"
b10 3"
b10 ,"
1!
#60
0!
#70
b0 N
b0 c
b0 '"
b0 L
b0 e
b0 #"
b0 =
b0 >
b0 [
b1000 I
b1000 G
b0 O
b0 a
b0 +"
b0 M
b0 U
b0 K
b0 T
b0 >"
b10011 7"
b1000 ;
b0 <
b0 ?
b1101111 @
b100 J
b100 g
b100 }
b1000 H
b1000 i
b1000 y
b1000 E
b1000 m
b1000 q
b100000000000000001101111 F
b100000000000000001101111 k
b100000000000000001101111 u
b1101111 )
b1101111 -
b1101111 8
b10000000000010000000000000000 b
b10000000000010000000000000000 &"
b10000000000010000000000000000 4"
b10000000000010000000000000000 ("
b10000000000010000000000000000 d
b10000000000010000000000000000 ""
b10000000000010000000000000000 5"
b10000000000010000000000000000 $"
b100 l
b100 p
b100 ="
b100 r
b10000000100010011 j
b10000000100010011 t
b10000000100010011 v
b10000000100010011 <"
b10000000000010000000000000000 W
b1000 +
b1000 B
b1000 /
b1000 3
b1000 5
b100000000000000001101111 ,
b100000000000000001101111 A
b100000000000000001101111 0
b100000000000000001101111 7
b100000000000000001101111 9
b1100 '
b1100 (
b1100 .
b1100 4
1!
#80
0!
#90
b11111110000000010000000100010011 )
b11111110000000010000000100010011 -
b11111110000000010000000100010011 8
b0 ;
b0 I
b1100 G
b100 J
b100 g
b100 }
b1100 H
b1100 i
b1100 y
b0 M
b0 U
b1100 E
b1100 m
b1100 q
b1101111 F
b1101111 k
b1101111 u
b0 6"
b1101111 7"
b1100 Y
b1100 2"
b1100 E"
b0 X
b0 1"
b0 D"
b10000 '
b10000 (
b10000 .
b10000 4
b1101111 ,
b1101111 A
b1101111 0
b1101111 7
b1101111 9
b1100 +
b1100 B
b1100 /
b1100 3
b1100 5
b100000000000000001101111 j
b100000000000000001101111 t
b100000000000000001101111 v
b100000000000000001101111 <"
b1000 l
b1000 p
b1000 ="
b1000 r
b1000 h
b1000 x
b1000 z
b1000 9"
b1100 :"
b100 f
b100 |
b100 ~
b100 8"
b0 d
b0 ""
b0 5"
b0 $"
b0 b
b0 &"
b0 4"
b0 ("
b0 `
b0 *"
b0 3"
b0 ,"
1!
#100
0!
#110
b10000000000010000000000000000 N
b10000000000010000000000000000 c
b10000000000010000000000000000 '"
b10000000000010000000000000000 L
b10000000000010000000000000000 e
b10000000000010000000000000000 #"
b10000000000010000000000000000 =
b10000000000010000000000000000 >
b10000000000010000000000000000 [
b10 O
b10 a
b10 +"
b10 K
b10 T
b10 <
b10 ?
b1111111 C
b10011 @
b11111111111100010000011111100000 I
b10000 G
b11111111111111111111111111100000 J
b11111111111111111111111111100000 g
b11111111111111111111111111100000 }
b10000000000010000000000000000 H
b10000000000010000000000000000 i
b10000000000010000000000000000 y
b10000 E
b10000 m
b10000 q
b11111110000000010000000100010011 F
b11111110000000010000000100010011 k
b11111110000000010000000100010011 u
b100000010010111000100011 )
b100000010010111000100011 -
b100000010010111000100011 8
b10000 :"
b1100 h
b1100 x
b1100 z
b1100 9"
b1100 l
b1100 p
b1100 ="
b1100 r
b1101111 j
b1101111 t
b1101111 v
b1101111 <"
b10000 +
b10000 B
b10000 /
b10000 3
b10000 5
b11111110000000010000000100010011 ,
b11111110000000010000000100010011 A
b11111110000000010000000100010011 0
b11111110000000010000000100010011 7
b11111110000000010000000100010011 9
b10100 '
b10100 (
b10100 .
b10100 4
1!
#120
0!
#130
b0 O
b0 a
b0 +"
0P
b10000000000001111111111100000 N
b10000000000001111111111100000 c
b10000000000001111111111100000 '"
b10000000000001111111111100000 L
b10000000000001111111111100000 e
b10000000000001111111111100000 #"
b1000 M
b1000 U
b10000000000001111111111100000 Y
b10000000000001111111111100000 2"
b10000000000001111111111100000 E"
b10000000000001111111111100000 =
b10000000000001111111111100000 >
b10000000000001111111111100000 [
b10000000010000010000010011 )
b10000000010000010000010011 -
b10000000010000010000010011 8
b1000 ;
b11100 ?
b0 C
b10 D
b100011 @
b11100 J
b11100 g
b11100 }
b10000000000001111111111100000 H
b10000000000001111111111100000 i
b10000000000001111111111100000 y
b10100 E
b10100 m
b10100 q
b100000010010111000100011 F
b100000010010111000100011 k
b100000010010111000100011 u
b10 6"
b1111111 >"
b10011 7"
b10 X
b10 1"
b10 D"
b11000 '
b11000 (
b11000 .
b11000 4
b100000010010111000100011 ,
b100000010010111000100011 A
b100000010010111000100011 0
b100000010010111000100011 7
b100000010010111000100011 9
b10100 +
b10100 B
b10100 /
b10100 3
b10100 5
b11111110000000010000000100010011 j
b11111110000000010000000100010011 t
b11111110000000010000000100010011 v
b11111110000000010000000100010011 <"
b10000 l
b10000 p
b10000 ="
b10000 r
b10000000000010000000000000000 h
b10000000000010000000000000000 x
b10000000000010000000000000000 z
b10000000000010000000000000000 9"
b10000000000001111111111100000 :"
b11111111111111111111111111100000 f
b11111111111111111111111111100000 |
b11111111111111111111111111100000 ~
b11111111111111111111111111100000 8"
b10000000000010000000000000000 d
b10000000000010000000000000000 ""
b10000000000010000000000000000 5"
b10000000000010000000000000000 $"
b10000000000010000000000000000 b
b10000000000010000000000000000 &"
b10000000000010000000000000000 4"
b10000000000010000000000000000 ("
b10 `
b10 *"
b10 3"
b10 ,"
1!
#140
0!
#150
b10000000000001111111111100000 B"
b10000000000001111111111100000 I"
b10000000000001111111111111100 @"
b10000000000001111111111111100 G"
b10000000000001111111111111100 A"
b10000000000001111111111111100 H"
1C"
b1000 O
b1000 a
b1000 +"
1P
b0 M
b0 U
b11100 6"
b10 ?"
b0 >"
b100011 7"
b0 Y
b0 2"
b0 E"
b0 X
b0 1"
b0 D"
0Z
0F"
b0 ;
b1000 ?
b1 C
b0 D
b10011 @
b100000 J
b100000 g
b100000 }
b10000000000001111111111100000 H
b10000000000001111111111100000 i
b10000000000001111111111100000 y
b11000 E
b11000 m
b11000 q
b10000000010000010000010011 F
b10000000010000010000010011 k
b10000000010000010000010011 u
b100000000011110010011 )
b100000000011110010011 -
b100000000011110010011 8
b0 `
b0 *"
b0 3"
b0 ,"
0_
0."
b10000000000001111111111100000 b
b10000000000001111111111100000 &"
b10000000000001111111111100000 4"
b10000000000001111111111100000 ("
b10000000000001111111111100000 d
b10000000000001111111111100000 ""
b10000000000001111111111100000 5"
b10000000000001111111111100000 $"
b11100 f
b11100 |
b11100 ~
b11100 8"
b10000000000001111111111111100 :"
b10000000000001111111111100000 h
b10000000000001111111111100000 x
b10000000000001111111111100000 z
b10000000000001111111111100000 9"
b10100 l
b10100 p
b10100 ="
b10100 r
b100000010010111000100011 j
b100000010010111000100011 t
b100000010010111000100011 v
b100000010010111000100011 <"
b10000000000001111111111100000 W
b11000 +
b11000 B
b11000 /
b11000 3
b11000 5
b10000000010000010000010011 ,
b10000000010000010000010011 A
b10000000010000010000010011 0
b10000000010000010000010011 7
b10000000010000010000010011 9
b11100 '
b11100 (
b11100 .
b11100 4
1!
#160
0!
#170
b0 N
b0 c
b0 '"
b0 L
b0 e
b0 #"
b0 =
b0 >
b0 [
b1111 O
b1111 a
b1111 +"
b0 M
b0 U
b0 K
b0 T
b10000000000010000000000000000 Y
b10000000000010000000000000000 2"
b10000000000010000000000000000 E"
b0 B"
b0 I"
0C"
b11111110111101000010011000100011 )
b11111110111101000010011000100011 -
b11111110111101000010011000100011 8
b1 ;
b0 <
b1111 ?
b0 C
b1 J
b1 g
b1 }
b0 H
b0 i
b0 y
b11100 E
b11100 m
b11100 q
b100000000011110010011 F
b100000000011110010011 k
b100000000011110010011 u
b1000 6"
b0 ?"
b1 >"
b10011 7"
b0 @"
b0 G"
b0 A"
b0 H"
b1000 X
b1000 1"
b1000 D"
1Z
1F"
b100000 '
b100000 (
b100000 .
b100000 4
b100000000011110010011 ,
b100000000011110010011 A
b100000000011110010011 0
b100000000011110010011 7
b100000000011110010011 9
b11100 +
b11100 B
b11100 /
b11100 3
b11100 5
b10000000010000010000010011 j
b10000000010000010000010011 t
b10000000010000010000010011 v
b10000000010000010000010011 <"
b11000 l
b11000 p
b11000 ="
b11000 r
b10000000000010000000000000000 :"
b100000 f
b100000 |
b100000 ~
b100000 8"
1_
1."
b1000 `
b1000 *"
b1000 3"
b1000 ,"
bx ;"
bx J"
1!
#180
0!
#190
b10000000000010000000000000000 H
b10000000000010000000000000000 i
b10000000000010000000000000000 y
b10000000000010000000000000000 N
b10000000000010000000000000000 c
b10000000000010000000000000000 '"
b10000000000010000000000000000 L
b10000000000010000000000000000 e
b10000000000010000000000000000 #"
b1 \
b10000000000010000000000000000 =
b10000000000010000000000000000 >
b10000000000010000000000000000 [
b0 O
b0 a
b0 +"
0P
b1000 K
b1000 T
b1111 6"
b0 >"
b1 Y
b1 2"
b1 E"
b1111 X
b1111 1"
b1111 D"
b1111 ;
b1000 <
b1100 ?
b1111111 C
b10 D
b100011 @
b11111111111111111111111111101100 J
b11111111111111111111111111101100 g
b11111111111111111111111111101100 }
b1111 M
b1111 U
b100000 E
b100000 m
b100000 q
b11111110111101000010011000100011 F
b11111110111101000010011000100011 k
b11111110111101000010011000100011 u
b1000000000011110010011 )
b1000000000011110010011 -
b1000000000011110010011 8
b0 ;"
b0 J"
b1111 `
b1111 *"
b1111 3"
b1111 ,"
b0 b
b0 &"
b0 4"
b0 ("
b0 d
b0 ""
b0 5"
b0 $"
b1 f
b1 |
b1 ~
b1 8"
b1 :"
b0 h
b0 x
b0 z
b0 9"
b11100 l
b11100 p
b11100 ="
b11100 r
b100000000011110010011 j
b100000000011110010011 t
b100000000011110010011 v
b100000000011110010011 <"
b10000000000010000000000000000 V
b100000 +
b100000 B
b100000 /
b100000 3
b100000 5
b11111110111101000010011000100011 ,
b11111110111101000010011000100011 A
b11111110111101000010011000100011 0
b11111110111101000010011000100011 7
b11111110111101000010011000100011 9
b100100 '
b100100 (
b100100 .
b100100 4
1!
#200
0!
#210
b0 N
b0 c
b0 '"
b0 L
b0 e
b0 #"
b0 \
b0 =
b0 >
b0 [
b1111 O
b1111 a
b1111 +"
1P
b0 M
b0 U
b0 K
b0 T
b10000000000010000000000000000 B"
b10000000000010000000000000000 I"
b10000000000001111111111101100 @"
b10000000000001111111111101100 G"
b10000000000001111111111101100 A"
b10000000000001111111111101100 H"
1C"
b11111110111101000010010000100011 )
b11111110111101000010010000100011 -
b11111110111101000010010000100011 8
b10 ;
b0 <
b1111 ?
b0 C
b0 D
b10011 @
b10 J
b10 g
b10 }
b0 H
b0 i
b0 y
b100100 E
b100100 m
b100100 q
b1000000000011110010011 F
b1000000000011110010011 k
b1000000000011110010011 u
b1100 6"
b10 ?"
b1111111 >"
b100011 7"
b0 Y
b0 2"
b0 E"
b0 X
b0 1"
b0 D"
0Z
0F"
b101000 '
b101000 (
b101000 .
b101000 4
b1000000000011110010011 ,
b1000000000011110010011 A
b1000000000011110010011 0
b1000000000011110010011 7
b1000000000011110010011 9
b100100 +
b100100 B
b100100 /
b100100 3
b100100 5
b1 S
b11111110111101000010011000100011 j
b11111110111101000010011000100011 t
b11111110111101000010011000100011 v
b11111110111101000010011000100011 <"
b100000 l
b100000 p
b100000 ="
b100000 r
b10000000000010000000000000000 h
b10000000000010000000000000000 x
b10000000000010000000000000000 z
b10000000000010000000000000000 9"
b10000000000001111111111101100 :"
b11111111111111111111111111101100 f
b11111111111111111111111111101100 |
b11111111111111111111111111101100 ~
b11111111111111111111111111101100 8"
b10000000000010000000000000000 d
b10000000000010000000000000000 ""
b10000000000010000000000000000 5"
b10000000000010000000000000000 $"
b10000000000010000000000000000 b
b10000000000010000000000000000 &"
b10000000000010000000000000000 4"
b10000000000010000000000000000 ("
0_
0."
b0 `
b0 *"
b0 3"
b0 ,"
1!
#220
0!
#230
b10000000000010000000000000000 H
b10000000000010000000000000000 i
b10000000000010000000000000000 y
b10000000000010000000000000000 N
b10000000000010000000000000000 c
b10000000000010000000000000000 '"
b10000000000010000000000000000 L
b10000000000010000000000000000 e
b10000000000010000000000000000 #"
b10 \
b10 Y
b10 2"
b10 E"
0C"
b10000000000010000000000000000 =
b10000000000010000000000000000 >
b10000000000010000000000000000 [
b0 O
b0 a
b0 +"
0P
b1000 K
b1000 T
b1111 6"
b0 ?"
b0 >"
b10011 7"
b0 B"
b0 I"
b0 @"
b0 G"
b0 A"
b0 H"
b1111 X
b1111 1"
b1111 D"
1Z
1F"
b1111 ;
b1000 <
b1000 ?
b1111111 C
b10 D
b100011 @
b11111111111111111111111111101000 J
b11111111111111111111111111101000 g
b11111111111111111111111111101000 }
b1111 M
b1111 U
b101000 E
b101000 m
b101000 q
b11111110111101000010010000100011 F
b11111110111101000010010000100011 k
b11111110111101000010010000100011 u
b11111110110001000010011100000011 )
b11111110110001000010011100000011 -
b11111110110001000010011100000011 8
bx ;"
bx J"
b1111 `
b1111 *"
b1111 3"
b1111 ,"
1_
1."
b0 b
b0 &"
b0 4"
b0 ("
b0 d
b0 ""
b0 5"
b0 $"
b10 f
b10 |
b10 ~
b10 8"
b10 :"
b0 h
b0 x
b0 z
b0 9"
b100100 l
b100100 p
b100100 ="
b100100 r
b1000000000011110010011 j
b1000000000011110010011 t
b1000000000011110010011 v
b1000000000011110010011 <"
b101000 +
b101000 B
b101000 /
b101000 3
b101000 5
b11111110111101000010010000100011 ,
b11111110111101000010010000100011 A
b11111110111101000010010000100011 0
b11111110111101000010010000100011 7
b11111110111101000010010000100011 9
b101100 '
b101100 (
b101100 .
b101100 4
1!
#240
0!
#250
b0 \
b1110 O
b1110 a
b1110 +"
1P
b0 M
b0 U
b10000000000010000000000000000 B"
b10000000000010000000000000000 I"
b10000000000001111111111101000 @"
b10000000000001111111111101000 G"
b10000000000001111111111101000 A"
b10000000000001111111111101000 H"
1C"
b11111110100001000010011110000011 )
b11111110100001000010011110000011 -
b11111110100001000010011110000011 8
b1100 ;
b1110 ?
b11 @
b11111111111111111111111111101100 J
b11111111111111111111111111101100 g
b11111111111111111111111111101100 }
b10000000000010000000000000000 H
b10000000000010000000000000000 i
b10000000000010000000000000000 y
b101100 E
b101100 m
b101100 q
b11111110110001000010011100000011 F
b11111110110001000010011100000011 k
b11111110110001000010011100000011 u
b1000 6"
b10 ?"
b1111111 >"
b100011 7"
b0 Y
b0 2"
b0 E"
b0 X
b0 1"
b0 D"
0Z
0F"
b110000 '
b110000 (
b110000 .
b110000 4
b11111110110001000010011100000011 ,
b11111110110001000010011100000011 A
b11111110110001000010011100000011 0
b11111110110001000010011100000011 7
b11111110110001000010011100000011 9
b101100 +
b101100 B
b101100 /
b101100 3
b101100 5
b10 S
b11111110111101000010010000100011 j
b11111110111101000010010000100011 t
b11111110111101000010010000100011 v
b11111110111101000010010000100011 <"
b101000 l
b101000 p
b101000 ="
b101000 r
b10000000000010000000000000000 h
b10000000000010000000000000000 x
b10000000000010000000000000000 z
b10000000000010000000000000000 9"
b10000000000001111111111101000 :"
b11111111111111111111111111101000 f
b11111111111111111111111111101000 |
b11111111111111111111111111101000 ~
b11111111111111111111111111101000 8"
b10000000000010000000000000000 d
b10000000000010000000000000000 ""
b10000000000010000000000000000 5"
b10000000000010000000000000000 $"
b10000000000010000000000000000 b
b10000000000010000000000000000 &"
b10000000000010000000000000000 4"
b10000000000010000000000000000 ("
0_
0."
b0 `
b0 *"
b0 3"
b0 ,"
b0 ;"
b0 J"
1!
#260
0!
#270
bx Y
bx 2"
bx E"
b0 B"
b0 I"
0C"
b1111 O
b1111 a
b1111 +"
b1110 6"
b11 7"
b0 @"
b0 G"
b0 A"
b0 H"
b1110 X
b1110 1"
b1110 D"
1Z
1F"
b1000 ;
b1111 ?
b11111111111111111111111111101000 J
b11111111111111111111111111101000 g
b11111111111111111111111111101000 }
b10000000000010000000000000000 H
b10000000000010000000000000000 i
b10000000000010000000000000000 y
b0 M
b0 U
b110000 E
b110000 m
b110000 q
b11111110100001000010011110000011 F
b11111110100001000010011110000011 k
b11111110100001000010011110000011 u
b111101110000011110110011 )
b111101110000011110110011 -
b111101110000011110110011 8
bx ;"
bx J"
b1110 `
b1110 *"
b1110 3"
b1110 ,"
1_
1."
b10000000000001111111111101100 :"
b11111111111111111111111111101100 f
b11111111111111111111111111101100 |
b11111111111111111111111111101100 ~
b11111111111111111111111111101100 8"
b101100 l
b101100 p
b101100 ="
b101100 r
b11111110110001000010011100000011 j
b11111110110001000010011100000011 t
b11111110110001000010011100000011 v
b11111110110001000010011100000011 <"
b110000 +
b110000 B
b110000 /
b110000 3
b110000 5
b11111110100001000010011110000011 ,
b11111110100001000010011110000011 A
b11111110100001000010011110000011 0
b11111110100001000010011110000011 7
b11111110100001000010011110000011 9
b110100 '
b110100 (
b110100 .
b110100 4
1!
#280
0!
